[map]
#                   1 1 1 1 1 1 1 1 1 1 2 2 2 2 2 2 2 2 2 2 3 3 3 3 3 3 3 3 3 3
# 1 2 3 4 5 6 7 8 9 0 1 2 3 4 5 6 7 8 9 0 1 2 3 4 5 6 7 8 9 0 1 2 3 4 5 6 7 8 9
. . . . . . . . . . . . .   . . .   _ _ _ _ _ _ _ _ _ _ _ _   _ _ _ . . . . . .
.   .                   . . .   .   _                     _ _ _   _   . .     .
.   .   _ _ _ _ _ _ _           .   _       .     . . . .         _ _   . . * .
. . .   _           _ _ _ _ _ _ _ _ _       .     .     . . . . .   _     .   .
.     _ _   . . .       .   .     .   . . . . . . . . .         .   _     .   .
.   _ _   . .   . . .   .   . . . .   .     .   * *     . . . . .   _     .   .
.   _   . .         .   .             .     . *   . *   .           _     . * .
.   _ _   . . .     .     . . . . . . . .   *   . . . * .   _ _ _ _ _ . .     .
. .   _     . .   . . . .     *         .   .   .   . * .   _           .     .
.   _ _     .   . .     *     _ _ _     .   . . . * *   .   _ _ _ _ _   . .   .
.   _       .   .   _ _ _ _ _ _ * _ _ _ _   .   * . . . .           _   .     .
.   _ _ _ _ .   .   _   .               _   .   * .     . . . .     _   .     .
.         _     .   _   .   . . . . . . _@  .   * .           .     _   .     .
.   . . . _ _ _ _ _ _   .   .             x . . .     . . . * . . * _ * . . . .
.   .       *           . * . * . . * . . _     . . . .       .     _   .     .
.   .       .     . . * .       .   .     _     *       . . . .     _   *   . .
. . . . . . . .   .     . . . . .   .   _ _   . . . . . .     *     _ _ _ _   .
  .     *     .   .     . .         .   _   . .           . . . . .       _   .
  .     .   . . . . . .   .     .   .   _     . .     .   .         .     _   *
  .     .         .       .     .   .   _       .     .   .   .     .     _ _ _
  .     .   .     .       . . . . . .   _       .   . . . .   . . . . . .     _
  . . . . . . .   . . .               _ _   . . . .     * . *       .         _
  .   *       .   . * .     .   _ _ _ _     .       _ _ _ _ _ _ _ _ _ _ _ _ _ _
  .   .       .   . . . . . .   _       . . .       _   * . *   . * .
  .   . . . . . .   .     .     _   . . .           _     .   . .   . . . . . .
  .       .     *   .     .     _   *       _ _ _ _ _   .     .               .
    . . . .     . . .     . . * _ _ _ _ _ _ _       . . . . * . . . . . . . . .
[legend]
. floor type=normal
_ floor type=normal
* wall
x exit
@ hero direction=west

[ui]
top 8
left 16
width 16
height 12
lpanel 4
fps 30
move_ticks 6
turn_ticks 3

# vim: set ft=text nowrap :
